1.1
1.3
1.4
1.5
1.7
2.1
2.2
3.1
3.2
3.3
4.1
4.2
4.3
4.4
4.5
4.6
4.7
4.8
4.9
4.10
4.11
4.12
4.13
5.1
5.2
5.3
5.4
5.5
5.6
5.8
6.1
6.2
7.2
7.3
7.4
8.1
8.2
8.3
8.4
8.5
8.6
8.7
8.8
8.9
8.10
9.4
10.1
10.2
10.3
10.4
10.5
10.6
10.7
10.9
10.10
10.11
10.12
10.13
10.14
11.1
11.2
11.3
11.4
11.5
11.6
11.7
11.9
11.10
11.12
12.1
12.2
12.3
12.4
12.5
12.6
12.7
12.8
12.9
12.10
13.1
13.2
13.3
13.4
13.5
13.6
13.7
13.8
13.9
13.10
13.11
13.12
